<svg xmlns="http://www.w3.org/2000/svg" width="24" height="24" version="1.1">
 <defs>
  <style id="current-color-scheme" type="text/css">
   .ColorScheme-Text { color:#ebdbb2; } .ColorScheme-Highlight { color:#4285f4; }
  </style>
 </defs>
 <path style="fill:currentColor" class="ColorScheme-Text" d="M 6.89,4.2694 C 6.7701,4.2585 6.5658,4.2772 6.5658,4.2772 6.3145,4.3291 5.9995,4.5119 5.3178,5.0077 4.9083,5.3075 4.3464,5.8455 4.2143,6.0624 3.9078,6.5764 3.9251,7.013 4.2983,8.0175 4.9383,9.74 5.8734,11.4 7.1029,13.002 9.456,16.067 12.42,18.296 16.132,19.791 16.605,19.982 16.759,20.014 17.13,19.996 17.579,19.975 17.92,19.839 18.401,19.482 18.933,19.088 19.694,18.163 19.89,17.67 20.075,17.202 20.026,16.778 19.751,16.447 19.595,16.264 18.442,15.344 17.903,14.975 17.494,14.696 16.86,14.312 16.569,14.164 16.186,13.973 15.804,13.94 15.431,14.064 15.137,14.163 15.041,14.247 14.612,14.773 14.39,15.042 13.95,15.422 13.95,15.422 13.604,15.58 13.13,15.485 12.356,15.107 11.753,14.816 11.219,14.447 10.614,13.904 10.099,13.445 9.5794,12.844 9.2884,12.377 8.9131,11.775 8.627,10.994 8.6243,10.562 8.6243,10.376 8.7962,9.9783 8.7962,9.9783 L 9.3196,9.5213 C 9.946,9.0281 10.086,8.8743 10.171,8.5799 10.253,8.3065 10.165,7.9359 9.9035,7.4374 9.4462,6.5643 8.0487,4.8175 7.5462,4.4921 7.4641,4.4402 7.3202,4.3688 7.2279,4.3378 7.1326,4.3041 7.0099,4.2804 6.89,4.2694 Z"/>
 <path style="fill:currentColor" class="ColorScheme-Highlight" d="M 13.339,7.8241 C 13.288,7.8299 13.253,7.8428 13.202,7.8671 12.935,8.0012 12.861,8.3654 13.054,8.5897 13.159,8.7109 13.258,8.7466 13.583,8.785 14.276,8.8678 14.684,9.1208 14.917,9.6092 15.025,9.8389 15.09,10.088 15.124,10.441 15.153,10.707 15.193,10.805 15.319,10.898 15.494,11.03 15.781,11.024 15.937,10.885 16.103,10.735 16.133,10.555 16.061,10.096 15.956,9.3908 15.716,8.8988 15.276,8.494 14.935,8.1815 14.535,7.9873 14.015,7.8788 13.907,7.856 13.705,7.8336 13.567,7.8261 13.567,7.8261 13.389,7.8184 13.339,7.8241 Z M 12.778,5.8925 C 12.629,5.9154 12.542,5.9756 12.474,6.08 H 12.472 C 12.345,6.2686 12.36,6.4962 12.511,6.664 12.608,6.7751 12.751,6.8267 13.011,6.8476 13.728,6.9041 14.513,7.1334 15.046,7.4433 15.664,7.8023 16.172,8.3181 16.52,8.9432 16.827,9.4909 17.005,10.196 17.005,10.865 17.005,11.299 17.065,11.458 17.269,11.559 17.39,11.621 17.611,11.626 17.714,11.574 17.809,11.525 17.92,11.408 17.954,11.32 17.991,11.227 17.99,10.666 17.956,10.359 17.858,9.5198 17.574,8.7364 17.116,8.0702 16.302,6.8872 15.059,6.16 13.454,5.9296 13.138,5.8831 12.927,5.8696 12.778,5.8925 Z M 12.532,4.0038 C 12.101,3.991 12.014,4.0059 11.89,4.1171 11.686,4.2949 11.696,4.6774 11.907,4.8397 12.021,4.9246 12.108,4.9443 12.61,4.9726 14.096,5.0574 15.232,5.45 16.329,6.2558 17.645,7.2191 18.47,8.5612 18.782,10.242 18.862,10.671 18.902,11.029 18.929,11.584 18.945,11.946 18.957,12.026 19.005,12.119 19.156,12.401 19.597,12.442 19.798,12.191 19.904,12.062 19.916,11.962 19.897,11.51 19.847,10.185 19.553,8.9811 19.038,7.9687 18.668,7.2431 18.321,6.7752 17.692,6.1581 17.021,5.5046 16.513,5.1468 15.72,4.7675 14.913,4.3828 14.178,4.1677 13.269,4.0565 13.089,4.0357 12.757,4.0112 12.532,4.0038 Z"/>
</svg>
