<svg xmlns="http://www.w3.org/2000/svg" width="16" height="16" version="1.1">
 <defs>
  <style id="current-color-scheme" type="text/css">
   .ColorScheme-Text { color:#ebdbb2; } .ColorScheme-Highlight { color:#4285f4; }
  </style>
 </defs>
 <path style="fill:currentColor" class="ColorScheme-Text" d="M 6.601,0.905 C 5.5461,0.93316 4.9728,1.8916 4.5283,2.7639 4.3661,2.8458 4.2013,2.9178 4.0409,3.0068 3.1699,3.5923 2.4558,4.4044 1.9048,5.2916 1.4202,6.147 1.1264,7.0973 1.0173,8.0724 0.95235,9.0609 1.0657,10.069 1.438,10.994 1.7265,11.807 2.2346,12.699 2.8848,13.256 3.748,13.832 4.4345,14.249 5.3765,14.208 3.4153,12.64 2.3805,10.759 2.0536,8.5444 2.0433,8.3785 2.0229,8.1992 2.0827,8.2434 2.3062,8.5977 2.3582,8.5844 2.7463,8.7855 2.4117,7.5336 2.8585,6.1408 3.4047,5.124 3.473,5.0458 3.5472,4.9707 3.6202,4.8948 L 3.6544,4.9 C 3.6666,5.0955 3.6898,5.2923 3.7125,5.4814 3.7083,5.5726 3.7664,5.7282 3.7843,5.8286 3.7709,5.8638 3.6979,6.0745 3.6698,6.3382 3.6528,6.4427 3.6522,6.5453 3.668,6.6461 3.6709,6.6659 3.6724,6.6847 3.6766,6.7042 3.6851,6.7397 3.6947,6.7755 3.7091,6.8102 3.7395,6.8924 3.78,6.9701 3.8459,7.0343 3.8703,6.9245 3.92,6.8359 3.9878,6.7624 4.0048,6.744 4.0304,6.7328 4.0494,6.7162 4.1109,6.6641 4.1751,6.6138 4.2444,6.5759 4.258,6.5685 4.2582,6.5709 4.2717,6.564 4.4437,6.4762 4.6129,6.422 4.6138,6.422 L 4.6275,6.4084 C 4.6986,6.3794 4.7703,6.3482 4.8361,6.316 5.8231,5.354 6.7565,5.1856 7.9999,5.283 8.6843,5.283 9.074,5.1053 9.7512,4.8008 10.79,5.2351 11.236,5.9134 11.502,7.0343 11.603,7.8767 10.249,9.8971 9.7512,10.535 9.7511,10.535 9.7478,10.537 9.7478,10.537 9.7478,10.537 9.7512,10.537 9.7512,10.537 9.7615,10.538 11.255,9.8711 11.851,9.3055 11.426,12.593 9.0615,14.631 7.9999,15.09 8.8204,15.146 9.944,14.634 10.717,14.162 10.364,14.54 9.9867,14.95 9.7512,15.09 10.675,14.832 11.549,14.738 12.132,14.312 12.132,14.312 12.604,13.88 13.098,13.316 13.164,13.241 13.277,13.138 13.344,13.053 13.386,13 13.426,12.946 13.467,12.892 13.475,12.883 13.483,12.874 13.49,12.865 14.529,11.593 15.036,10.012 14.998,8.5787 15.005,6.8415 14.299,5.3342 13.115,4.0876 12.259,3.1861 11.286,2.6332 10.41,2.3347 9.5031,2.0744 8.4364,1.9423 7.5297,1.9926 7.4389,1.9938 7.1871,2.0011 6.8439,2.0303 6.8037,1.9546 6.8537,1.6741 6.9516,1.6044 6.7369,1.6245 6.5392,1.9038 6.3565,2.097 6.3257,2.103 6.2941,2.109 6.2658,2.1158 6.4304,1.8311 6.5982,1.5108 6.7943,1.2556 6.1867,1.369 5.9216,1.8466 5.6245,2.2868 5.5388,2.315 5.4555,2.3493 5.3714,2.3809 5.5918,1.745 6.0061,1.397 6.601,0.905 Z M 5.5255,4.1826 C 5.6954,4.1794 5.8489,4.2083 5.8504,4.2083 5.8533,4.2083 5.927,4.5061 5.7871,4.7607 5.6472,5.0163 5.3213,5.1186 5.1407,5.0224 4.9561,4.9261 4.9567,4.6041 5.0996,4.3485 5.1686,4.2207 5.3555,4.1859 5.5255,4.1826 Z"/>
 <path style="opacity:0.3;fill:currentColor" class="ColorScheme-Text" d="M 9.5971,5.735 C 9.0999,5.9379 8.6326,6.1591 7.9998,6.1591 7.977,6.1595 7.9542,6.1589 7.9314,6.1574 6.8003,6.0688 6.2725,6.139 5.4465,6.9441 5.3801,7.0087 5.3039,7.0625 5.2207,7.1032 5.1684,7.1287 5.1189,7.1479 5.0685,7.1698 5.0111,7.2055 4.9496,7.2338 4.8856,7.2554 L 6.2486,8.786 10.551,7.4332 C 10.586,7.3038 10.62,7.1564 10.625,7.1698 10.426,6.3622 10.19,6.0293 9.5971,5.735 Z M 4.629,7.4041 C 4.4462,7.7886 4.0163,7.9952 3.6012,7.8744 3.6012,8.1044 3.5377,8.3546 3.5926,8.5602 3.6826,8.9018 3.5585,9.264 3.278,9.4786 3.4457,10.064 3.6616,10.626 3.9449,11.161 L 9.3782,12.827 C 9.4116,12.787 9.4462,12.755 9.4791,12.714 9.8201,12.285 10.14,11.778 10.403,11.204 10.395,11.208 10.381,11.214 10.374,11.218 10.293,11.256 10.227,11.286 10.177,11.308 10.152,11.319 10.132,11.327 10.112,11.336 10.102,11.34 10.094,11.345 10.078,11.351 10.07,11.354 10.061,11.357 10.038,11.365 10.027,11.369 9.9805,11.382 9.9802,11.382 9.9801,11.382 9.9016,11.401 9.9016,11.401 9.9015,11.401 9.6759,11.405 9.6484,11.406 8.9704,11.325 8.6411,10.534 9.0618,9.9969 9.0642,9.9939 9.0715,9.9828 9.0738,9.9798 9.2867,9.7055 9.732,9.0668 10.088,8.4338 10.187,8.2585 10.247,8.1078 10.326,7.9429 L 6.2486,9.2238 Z"/>
</svg>
