<svg xmlns="http://www.w3.org/2000/svg" width="16" height="16" version="1.1">
 <defs>
  <style id="current-color-scheme" type="text/css">
   .ColorScheme-Text { color:#ebdbb2; } .ColorScheme-Highlight { color:#4285f4; }
  </style>
 </defs>
 <path style="fill:currentColor;fill-rule:evenodd" class="ColorScheme-Text" d="m 7.5005361,12.958057 h 0.9563607 c 0,0 0.2888065,-0.03488 0.436472,-0.208948 0.1357229,-0.159993 0.1313883,-0.46023 0.1313883,-0.46023 0,0 -0.018713,-1.405914 0.5767702,-1.612924 0.5872557,-0.204071 1.6689667,1.35868 2.4680187,1.95971 0.604246,0.454621 1.063416,0.355109 1.063416,0.355109 l 2.136721,-0.0327 c 0,0 1.117671,-0.07555 0.587694,-1.038434 C 15.813997,11.841 15.548628,11.207433 14.268653,9.9057004 12.928293,8.5440965 13.107929,8.9644422 14.721743,6.6078695 15.705013,5.1726464 16.097739,4.6044734 15.974831,4.2292244 15.85774,3.8716645 15.134833,3.9661304 15.134833,3.9661304 l -2.405812,0.0163 c 0,0 -0.178487,-0.026607 -0.310661,0.060064 -0.129302,0.084747 -0.212291,0.2827716 -0.212291,0.2827716 0,0 -0.380915,0.8025688 -0.888579,1.7472305 C 10.24622,8.0654331 9.4899782,7.9705645 9.3148509,7.8466344 8.9074488,7.5581892 9.0092589,6.6881185 9.0092589,6.0697814 9.0092589,4.1383032 9.276648,3.3330337 8.4885549,3.1245621 8.2270793,3.0554285 8.0344473,3.0096875 7.3656488,3.0022179 6.5071791,2.9926409 5.9260779,3.0050641 5.5146608,3.2259133 5.2409597,3.3727587 5.0297894,3.6999207 5.1584727,3.7187449 c 0.1590541,0.023201 0.5190677,0.106482 0.7099545,0.3910417 0.246603,0.3675793 0.2379848,1.1927499 0.2379848,1.1927499 0,0 0.1417014,2.2735702 -0.3308355,2.5559674 C 5.4513374,8.052206 5.1889972,7.8567717 4.2338725,6.0486321 3.7446084,5.1225108 3.3750385,4.406536 3.3750385,4.406536 c 0,0 -0.071163,-0.1912939 -0.1982685,-0.2936989 C 3.0231704,3.9887544 2.8077527,3.9493679 2.8077527,3.9493679 l -2.28624834,0.016354 c 0,0 -0.34311177,0.010503 -0.46921329,0.1740085 -0.11217418,0.1455531 -0.0089673,0.4462212 -0.0089673,0.4462212 0,0 1.78974063,4.0797673 3.81642613,6.3918014 1.8585405,2.119948 3.6407644,1.980789 3.6407644,1.980789"/>
</svg>
