<svg xmlns="http://www.w3.org/2000/svg" width="16" height="16" version="1.1">
 <defs>
  <style id="current-color-scheme" type="text/css">
   .ColorScheme-Text { color:#ebdbb2; } .ColorScheme-Highlight { color:#4285f4; }
  </style>
 </defs>
 <path style="fill:currentColor" class="ColorScheme-Text" d="M 6 2 C 6 2 3 2 3 5.5 C 3 9 6 9 6 9 L 10 9 C 10 9 11 9 11 10.5 C 11 12 10 12 10 12 L 6 12 L 6 14 L 10 14 C 10 14 13 14 13 10.5 C 13 7 10 7 10 7 L 6 7 C 6 7 5 7 5 5.5 C 5 4 6 4 6 4 L 10 4 L 10 2 L 6 2 z"/>
 <path style="fill:currentColor" class="ColorScheme-Text" d="M 7,13 A 3,3 0 0 1 4,16 3,3 0 0 1 1,13 3,3 0 0 1 4,10 3,3 0 0 1 7,13 Z M 15,3 A 3,3 0 0 1 12,6 3,3 0 0 1 9,3 3,3 0 0 1 12,0 3,3 0 0 1 15,3 Z"/>
</svg>
