<svg xmlns="http://www.w3.org/2000/svg" width="16" height="16" version="1.1">
 <defs>
  <style id="current-color-scheme" type="text/css">
   .ColorScheme-Text { color:#ebdbb2; } .ColorScheme-Highlight { color:#4285f4; }
  </style>
 </defs>
 <path style="fill:currentColor" class="ColorScheme-Text" d="M 8,5 A 3,3 0 0 0 5,8 3,3 0 0 0 8,11 3,3 0 0 0 11,8 3,3 0 0 0 8,5 Z M 8,7 A 1,1 0 0 1 9,8 1,1 0 0 1 8,9 1,1 0 0 1 7,8 1,1 0 0 1 8,7 Z M 8,1 C 5,1 5,4 5,4 V 8 H 7 V 4 C 7,4 7,3 8,3 9,3 9,4 9,4 H 11 C 11,4 11,1 8,1 Z M 14,8 A 2,2 0 0 0 12,10 2,2 0 0 0 14,12 2,2 0 0 0 16,10 2,2 0 0 0 14,8 Z M 14,9 A 1,1 0 0 1 15,10 1,1 0 0 1 14,11 1,1 0 0 1 13,10 1,1 0 0 1 14,9 Z M 14,11 A 2,2 0 0 0 12,13 2,2 0 0 0 14,15 2,2 0 0 0 16,13 2,2 0 0 0 14,11 Z M 14,12 A 1,1 0 0 1 15,13 1,1 0 0 1 14,14 1,1 0 0 1 13,13 1,1 0 0 1 14,12 Z M 1,1 V 3 H 2 V 11 H 4 V 1 Z"/>
</svg>
