<svg xmlns="http://www.w3.org/2000/svg" width="16" height="16" version="1.1">
 <defs>
  <style id="current-color-scheme" type="text/css">
   .ColorScheme-Text { color:#ebdbb2; } .ColorScheme-Highlight { color:#4285f4; }
  </style>
 </defs>
 <path style="fill:currentColor" class="ColorScheme-Text" d="M 3,1 V 5 H 13 V 1 Z M 6,6 V 7 H 7 V 9 H 6 V 10 H 10 V 9 H 9 V 7 H 10 V 6 Z M 3,11 V 15 H 13 V 11 Z"/>
</svg>
