<svg xmlns="http://www.w3.org/2000/svg" width="16" height="16" version="1.1">
 <defs>
  <style id="current-color-scheme" type="text/css">
   .ColorScheme-Text { color:#ebdbb2; } .ColorScheme-Highlight { color:#4285f4; }
  </style>
 </defs>
 <path style="fill:currentColor" class="ColorScheme-Text" d="M 2,0 H 14 C 14,0 16,0 16,2 V 14 C 16,14 16,16 14,16 H 2 C 2,16 0,16 0,14 V 2 C 0,2 0,0 2,0 Z"/>
</svg>
