<svg xmlns="http://www.w3.org/2000/svg" width="16" height="16" version="1.1">
 <defs>
  <style id="current-color-scheme" type="text/css">
   .ColorScheme-Text { color:#ebdbb2; } .ColorScheme-Highlight { color:#4285f4; }
  </style>
 </defs>
 <path style="fill:currentColor" class="ColorScheme-Text" d="M 3,1 C 1,1 1,3 1,3 V 13 C 1,15 3,15 3,15 H 13 C 15,15 15,13 15,13 V 3 C 15,1 13,1 13,1 Z M 10,2 C 12.209,2 14,3.7909 14,6 14,8.2091 12.209,10 10,10 V 6 H 6 C 6,3.7909 7.7909,2 10,2 Z M 3,7 H 9 V 13 H 3 Z"/>
</svg>
