<svg xmlns="http://www.w3.org/2000/svg" width="16" height="16" version="1.1">
 <defs>
  <style id="current-color-scheme" type="text/css">
   .ColorScheme-Text { color:#ebdbb2; } .ColorScheme-Highlight { color:#4285f4; }
  </style>
 </defs>
 <path style="fill:currentColor" class="ColorScheme-Text" d="M 3 1 C 3 1 2 1 2 2 L 2 7 L 14 7 L 14 5 L 10 1 L 3 1 z M 2 9 L 2 14 C 2 15 3 15 3 15 L 13 15 C 14 15 14 14 14 14 L 14 9 L 2 9 z"/>
</svg>
