<svg xmlns="http://www.w3.org/2000/svg" width="16" height="16" version="1.1">
 <defs>
  <style id="current-color-scheme" type="text/css">
   .ColorScheme-Text { color:#ebdbb2; } .ColorScheme-Highlight { color:#4285f4; }
  </style>
 </defs>
 <path style="fill:currentColor" class="ColorScheme-Text" d="M 4,1 C 4,1 2,1 2,3 V 7 H 1 V 9 H 6 V 13 H 5 V 15 H 15 V 13 H 14 V 9 C 14,7 12,7 12,7 H 10 V 3 C 10,1 8,1 8,1 Z"/>
</svg>
