<svg xmlns="http://www.w3.org/2000/svg" width="22" height="22" version="1.1">
 <defs>
  <style id="current-color-scheme" type="text/css">
   .ColorScheme-Text { color:#ebdbb2; } .ColorScheme-Highlight { color:#4285f4; }
  </style>
 </defs>
 <path style="fill:currentColor" class="ColorScheme-Text" d="m13.088 3c-0.089 0-0.115 0.1809-0.06 0.4198 0 0 0.157 0.7623 1.213 1.3207 0.734 0.363 0.733 0.5727-5e-3 0.7904-0.321 0.0948-0.712 0.2747-0.868 0.3996-0.257 0.206-0.163 0.291 1.01 0.9161 0 0 1.425 0.7996 1.586 0.9349 0.279 0.2348 0.266 0.2677-0.279 0.7232-0.608 0.5084-1.328 1.6973-1.328 2.1933 0 0.268 0.119 0.29 1.121 0.205l1.893-0.196-0.055 1.349c-0.03 0.743-0.119 1.534-0.197 1.76-0.079 0.226-0.111 0.445-0.073 0.487 0.162 0.178 0.823-0.214 1.277-0.757 0.463-0.554 0.493-0.565 0.591-0.225 0.332 0.61 0.479 1.144 0.994 1.678 0.115 0.012 0.203-0.135 0.276-0.439 0.227-0.933 0.106-1.836-0.373-2.77-0.257-0.502-0.51-1.295-0.561-1.761 0 0-0.135-1.0072-0.186-1.2038-0.079-0.2987 0.073-0.473 0.923-1.0613 0.968-0.6698 1.218-1.0509 0.852-1.2988-0.091-0.0616-0.57 0.1245-1.065 0.4135s-0.997 0.5254-1.116 0.5254-0.492-0.3618-0.829-0.8039c-0.585-0.7684-0.612-0.8562-0.612-1.9903 0-1.0775-0.03-1.191-0.326-1.2373-0.239-0.0374-0.378 0.0865-0.521 0.4658-0.107 0.2843-0.25 0.5168-0.316 0.5168s-1.465-0.6775-1.465-0.6775-1.415-0.6776-1.501-0.6776zm-0.874 1.041-0.172 0.0118c-2.4422 0.2609-4.4791 1.7741-6.8101 5.0546-0.7038 0.9906-1.608 2.2616-2.0098 2.8266-1.6923 2.378-1.6202 4.819 0.1739 5.845 1.1595 0.664 2.279 0.926 4.0527 0.951 0.8915 0.013 2.1985 0.078 2.9023 0.143 1.964 0.181 2.21 0.176 3.592-0.064 1.547-0.27 2.739-0.831 3.697-1.739 0.386-0.365 0.853-1.062 1.242-1.771l-0.328-0.649s-0.3 0.305-0.469 0.405c-0.181 0.107-0.361 0.201-0.619 0.258-0.258 0.056-0.766 0.093-1.158-0.336-0.348-0.381-0.272-0.571-0.277-0.698-5e-3 -0.126 0.019-0.299 0.019-0.299 0.026-0.17 0.065-0.325 0.123-0.492 0 0 0.036-0.179 0.069-0.47l0.084-1.192s-0.457 0.048-0.764 0.074c-0.512 0.044-0.772 0.095-1.201 0.016-0.215-0.039-0.574-0.176-0.791-0.488-0.218-0.312-0.213-0.59-0.213-0.731 0-0.7314 0.279-1.1122 0.58-1.6091 0.205-0.3385 0.754-0.9199 0.754-0.9199l-0.783-0.4395s-0.889-0.4352-1.242-0.7558c-0.089-0.0802-0.193-0.1835-0.288-0.3653-0.094-0.1817-0.156-0.4726-0.107-0.7246 0.097-0.5039 0.359-0.6414 0.473-0.7324 0.112-0.09 0.214-0.0902 0.318-0.1523-0.213-0.1998-0.535-0.3914-0.658-0.5782-0.09-0.1359-0.137-0.258-0.19-0.3789zm-1.023 2.9688 0.308 0.0019s0.244 0.0717 0.331 0.1582c0.346 0.3462 0.119 1.1349-0.266 1.5196-0.385 0.3846-0.978 0.4165-1.324 0.0703-0.3465-0.3462-0.3146-0.9396 0.07-1.3242 0.216-0.2164 0.56-0.3833 0.881-0.4258zm-4.0001 2 0.3086 0.0019s0.2435 0.0717 0.3301 0.1582c0.3461 0.3462 0.119 1.1351-0.2657 1.5191-0.3846 0.385-0.978 0.417-1.3242 0.071s-0.3143-0.9398 0.0703-1.3244c0.2164-0.2164 0.5597-0.3833 0.8809-0.4258zm3.0001 2.0002 0.308 2e-3s0.244 0.071 0.331 0.158c0.346 0.346 0.119 1.135-0.266 1.52-0.385 0.384-0.9781 0.416-1.3243 0.07s-0.3143-0.94 0.0703-1.324c0.2164-0.217 0.5597-0.384 0.881-0.426zm4 1 0.308 2e-3c0.129 0.021 0.244 0.071 0.331 0.158 0.346 0.346 0.119 1.135-0.266 1.52-0.385 0.384-0.978 0.416-1.324 0.07s-0.315-0.94 0.07-1.324c0.216-0.217 0.56-0.384 0.881-0.426zm-9.0001 1 0.3086 2e-3s0.2435 0.071 0.3301 0.158c0.3461 0.346 0.119 1.135-0.2657 1.52-0.3846 0.384-0.978 0.416-1.3242 0.07s-0.3143-0.94 0.0703-1.324c0.2164-0.217 0.5597-0.384 0.8809-0.426zm4 2 0.3086 2e-3s0.2435 0.071 0.3301 0.158c0.3464 0.346 0.119 1.135-0.2657 1.52-0.3846 0.384-0.978 0.416-1.3242 0.07s-0.3143-0.94 0.0703-1.324c0.2164-0.217 0.5597-0.384 0.8809-0.426zm3.0001 1 0.308 2e-3s0.244 0.071 0.331 0.158c0.346 0.346 0.119 1.135-0.266 1.52-0.385 0.384-0.978 0.416-1.324 0.07s-0.315-0.94 0.07-1.324c0.216-0.217 0.56-0.384 0.881-0.426z"/>
</svg>
