<svg xmlns="http://www.w3.org/2000/svg" width="64" height="64" version="1.1">
 <rect style="opacity:0.2" width="50" height="32" x="7" y="24" rx="2.5" ry="2.5"/>
 <path style="fill:#689d6a" d="M 7,44.5 C 7,45.885 8.115,47 9.5,47 H 54.5 C 55.885,47 57,45.885 57,44.5 V 17.5 C 57,16.115 55.885,15 54.5,15 H 29 V 12.5 C 29,11.115 27.885,10 26.5,10 H 9.5 C 8.115,10 7,11.115 7,12.5"/>
 <rect style="opacity:0.2" width="50" height="28" x="7" y="26" rx="2.5" ry="2.5"/>
 <rect style="fill:#e4e4e4" width="44" height="20" x="10" y="18" rx="2.5" ry="2.5"/>
 <rect style="fill:#8ec07c" width="50" height="28" x="7" y="27" rx="2.5" ry="2.5"/>
 <path style="opacity:0.1;fill:#ffffff" d="M 9.5,10 C 8.115,10 7,11.115 7,12.5 V 13.5 C 7,12.115 8.115,11 9.5,11 H 26.5 C 27.885,11 29,12.115 29,13.5 V 12.5 C 29,11.115 27.885,10 26.5,10 Z M 29,15 V 16 H 54.5 C 55.89,16 57,17.115 57,18.5 V 17.5 C 57,16.115 55.89,15 54.5,15 Z"/>
 <path style="fill:#282828" d="M 25.5,31 C 24.669,31 24,31.669 24,32.5 V 44 H 25 V 43 H 26 V 33 H 34 V 37 H 38 V 49 50 H 39 V 49 H 40 V 36 L 35,31 Z M 39,50 V 51 H 40 V 50 Z M 38,50 H 37 V 51 H 38 Z M 37,50 V 49 H 36 V 50 Z M 36,50 H 35 V 51 H 36 Z M 35,50 V 49 H 34 V 50 Z M 34,50 H 33 V 51 H 34 Z M 33,50 V 49 H 32 V 50 Z M 32,50 H 31 V 51 H 32 Z M 31,50 V 49 H 30 V 50 Z M 30,50 H 29 V 51 H 30 Z M 29,50 V 49 H 28 V 50 Z M 28,50 H 27 V 51 H 28 Z M 27,50 V 49 H 26 V 50 Z M 26,50 H 25 V 51 H 26 Z M 25,50 V 49 H 24 V 50 Z M 25,49 H 26 V 48 H 25 Z M 25,48 V 47 H 24 V 48 Z M 25,47 H 26 V 46 H 25 Z M 25,46 V 45 H 24 V 46 Z M 25,45 H 26 V 44 H 25 Z"/>
</svg>
