<svg xmlns="http://www.w3.org/2000/svg" width="22" height="22" version="1.1">
 <defs>
  <style id="current-color-scheme" type="text/css">
   .ColorScheme-Text { color:#ebdbb2; } .ColorScheme-Highlight { color:#4285f4; }
  </style>
 </defs>
 <path style="fill:currentColor" class="ColorScheme-Text" d="M 15.373,3 12.313,10 H 15.736 L 18.8,3 Z M 9.9,7 8,11.688 6.125,7 H 3 L 6.4766,15.09 5.2285,18 H 8.3008 L 12.945,7.008 Z M 13,11 C 11.895,11 11,11.895 11,13 11,14.105 11.895,15 13,15 14.105,15 15,14.105 15,13 15,11.895 14.105,11 13,11 Z"/>
</svg>
