<svg xmlns="http://www.w3.org/2000/svg" width="22" height="22" version="1.1">
 <defs>
  <style id="current-color-scheme" type="text/css">
   .ColorScheme-Text { color:#ebdbb2; } .ColorScheme-Highlight { color:#4285f4; }
  </style>
 </defs>
 <g transform="translate(3,3)">
  <path style="fill:currentColor" class="ColorScheme-Text" d="M 2,4 H 3 V 12 H 2 Z M 4,13 H 12 V 14 H 4 Z M 13,4 H 14 V 12 H 13 Z M 4,2 H 12 V 3 H 4 Z M 1,12 H 4 V 15 H 1 Z M 12,12 H 15 V 15 H 12 Z M 1,1 H 4 V 4 H 1 Z M 12,1 H 15 V 4 H 12 Z"/>
  <path style="opacity:0.3;fill:currentColor" class="ColorScheme-Text" d="M 5,5 H 11 V 11 H 5 Z"/>
 </g>
</svg>
