<svg xmlns="http://www.w3.org/2000/svg" width="24" height="24" version="1.1">
 <defs>
  <style id="current-color-scheme" type="text/css">
   .ColorScheme-Text { color:#ebdbb2; } .ColorScheme-Highlight { color:#4285f4; }
  </style>
 </defs>
 <g transform="translate(4,4)">
  <path style="fill:currentColor" class="ColorScheme-Text" d="M 3,2 C 3,2 1,2 1,4 V 10 C 1,12 3,12 3,12 H 8 L 10,15 12,12 H 13 C 13,12 15,12 15,10 V 4 C 15,2 13,2 13,2 Z M 5,4 H 6.4141 L 8,5.5859 9.5859,4 H 11 V 5.4141 L 9.4141,7 11,8.5859 V 10 H 9.5859 L 8,8.4141 6.4141,10 H 5 V 8.5859 L 6.5859,7 5,5.4141 Z"/>
 </g>
</svg>
