<svg xmlns="http://www.w3.org/2000/svg" width="24" height="24" version="1.1">
 <defs>
  <style id="current-color-scheme" type="text/css">
   .ColorScheme-Text { color:#ebdbb2; } .ColorScheme-Highlight { color:#4285f4; }
  </style>
 </defs>
 <g transform="translate(1,1)">
  <path style="fill:currentColor" class="ColorScheme-Text" d="M 9,4 4,18 H 6.5 L 7.5625,15 H 11.135 L 12,14 C 12.434,13.653 13.066,13.653 13.457,14.043 L 14,14.586 V 12 L 11,4 Z M 10,8 11.75,13 H 8.25 Z M 15,13 V 17 L 12.75,14.75 12,15.5 15.5,19 19,15.5 18.25,14.75 16,17 V 13 Z"/>
 </g>
</svg>
